{
    "CityObjects": {
        "1": {
            "attributes": {
                "ArrDissolve-LoD12.global_elevation_50p": 8.637939453125,
                "ArrDissolve-LoD12.global_elevation_70p": 8.95513916015625,
                "ArrDissolve-LoD12.global_elevation_max": 11.23779296875,
                "ArrDissolve-LoD12.global_elevation_min": 0.031890869140625,
                "DataCoverageCalc.data_coverage": 0.9201778769493103,
                "LASInPolygons.ground_elevations": 0,
                "OGRLoader.annee": "2021",
                "OGRLoader.geo_batime": "0409199",
                "OGRLoader.geo_dur": "01",
                "OGRLoader.lot": "112",
                "OGRLoader.object_rid": "Objet_1620001",
                "OGRLoader.ogc_fid": 9199,
                "OGRLoader.tex": "",
                "PC2MeshQuality-LoD12.mesh_error_f": 0.591848611831665,
                "PC2MeshQuality-LoD13.mesh_error_f": 0.591848611831665,
                "PC2MeshQuality-LoD22.mesh_error_f": 0.18348978459835052,
                "Validator-LoD12.errors": "[]",
                "Validator-LoD13.errors": "[]",
                "Validator-LoD22.errors": "[]"
            },
            "children": [
                "1-0"
            ],
            "geographicalExtent": [
                923754.7699996567,
                6307613.00000021,
                0.0,
                923766.91,
                6307627.5200001905,
                0.0
            ],
            "geometry": [
                {
                    "boundaries": [
                        [
                            [
                                0,
                                1,
                                2,
                                3,
                                4,
                                5,
                                6,
                                7,
                                8
                            ]
                        ]
                    ],
                    "lod": "0",
                    "type": "MultiSurface"
                }
            ],
            "type": "Building"
        },
        "1-0": {
            "attributes": {},
            "geometry": [
                {
                    "boundaries": [
                        [
                            [
                                [
                                    9,
                                    10,
                                    11,
                                    12,
                                    13,
                                    14,
                                    15,
                                    16,
                                    17,
                                    18,
                                    19,
                                    20,
                                    21,
                                    22,
                                    23,
                                    24,
                                    25,
                                    26,
                                    27,
                                    28,
                                    29,
                                    30,
                                    31,
                                    32,
                                    33,
                                    34,
                                    35,
                                    36,
                                    37,
                                    38,
                                    39
                                ]
                            ],
                            [
                                [
                                    40,
                                    30,
                                    29,
                                    41
                                ]
                            ],
                            [
                                [
                                    42,
                                    32,
                                    31,
                                    43
                                ]
                            ],
                            [
                                [
                                    41,
                                    29,
                                    28,
                                    44
                                ]
                            ],
                            [
                                [
                                    44,
                                    28,
                                    27,
                                    45
                                ]
                            ],
                            [
                                [
                                    46,
                                    11,
                                    10,
                                    47
                                ]
                            ],
                            [
                                [
                                    48,
                                    39,
                                    38,
                                    49
                                ]
                            ],
                            [
                                [
                                    50,
                                    17,
                                    16,
                                    51
                                ]
                            ],
                            [
                                [
                                    52,
                                    18,
                                    17,
                                    50
                                ]
                            ],
                            [
                                [
                                    53,
                                    34,
                                    33,
                                    54
                                ]
                            ],
                            [
                                [
                                    55,
                                    15,
                                    14,
                                    56
                                ]
                            ],
                            [
                                [
                                    43,
                                    31,
                                    30,
                                    40
                                ]
                            ],
                            [
                                [
                                    56,
                                    14,
                                    13,
                                    57
                                ]
                            ],
                            [
                                [
                                    51,
                                    16,
                                    15,
                                    55
                                ]
                            ],
                            [
                                [
                                    45,
                                    27,
                                    26,
                                    58
                                ]
                            ],
                            [
                                [
                                    58,
                                    26,
                                    25,
                                    59
                                ]
                            ],
                            [
                                [
                                    60,
                                    24,
                                    23,
                                    61
                                ]
                            ],
                            [
                                [
                                    59,
                                    25,
                                    24,
                                    60
                                ]
                            ],
                            [
                                [
                                    62,
                                    21,
                                    20,
                                    63
                                ]
                            ],
                            [
                                [
                                    64,
                                    22,
                                    21,
                                    62
                                ]
                            ],
                            [
                                [
                                    65,
                                    35,
                                    34,
                                    53
                                ]
                            ],
                            [
                                [
                                    66,
                                    36,
                                    35,
                                    65
                                ]
                            ],
                            [
                                [
                                    67,
                                    37,
                                    36,
                                    66
                                ]
                            ],
                            [
                                [
                                    54,
                                    33,
                                    32,
                                    42
                                ]
                            ],
                            [
                                [
                                    61,
                                    23,
                                    22,
                                    64
                                ]
                            ],
                            [
                                [
                                    57,
                                    13,
                                    12,
                                    68
                                ]
                            ],
                            [
                                [
                                    49,
                                    38,
                                    37,
                                    67
                                ]
                            ],
                            [
                                [
                                    68,
                                    12,
                                    11,
                                    46
                                ]
                            ],
                            [
                                [
                                    69,
                                    9,
                                    39,
                                    48
                                ]
                            ],
                            [
                                [
                                    47,
                                    10,
                                    9,
                                    69
                                ]
                            ],
                            [
                                [
                                    63,
                                    20,
                                    19,
                                    70
                                ]
                            ],
                            [
                                [
                                    70,
                                    19,
                                    18,
                                    52
                                ]
                            ],
                            [
                                [
                                    70,
                                    52,
                                    50,
                                    51,
                                    55,
                                    56,
                                    57,
                                    68,
                                    46,
                                    47,
                                    69,
                                    48,
                                    49,
                                    67,
                                    66,
                                    65,
                                    53,
                                    54,
                                    42,
                                    43,
                                    40,
                                    41,
                                    44,
                                    45,
                                    58,
                                    59,
                                    60,
                                    61,
                                    64,
                                    62,
                                    63
                                ]
                            ]
                        ]
                    ],
                    "lod": "1.2",
                    "semantics": {
                        "surfaces": [
                            {
                                "type": "GroundSurface"
                            },
                            {
                                "type": "RoofSurface"
                            },
                            {
                                "on_footprint_edge": true,
                                "type": "WallSurface"
                            },
                            {
                                "on_footprint_edge": false,
                                "type": "WallSurface"
                            }
                        ],
                        "values": [
                            [
                                0,
                                2,
                                2,
                                2,
                                2,
                                2,
                                2,
                                2,
                                2,
                                2,
                                2,
                                2,
                                2,
                                2,
                                2,
                                2,
                                2,
                                2,
                                2,
                                2,
                                2,
                                2,
                                2,
                                2,
                                2,
                                2,
                                2,
                                2,
                                2,
                                2,
                                2,
                                2,
                                1
                            ]
                        ]
                    },
                    "type": "Solid"
                },
                {
                    "boundaries": [
                        [
                            [
                                [
                                    9,
                                    10,
                                    11,
                                    12,
                                    13,
                                    14,
                                    15,
                                    16,
                                    17,
                                    18,
                                    19,
                                    20,
                                    21,
                                    22,
                                    23,
                                    24,
                                    25,
                                    26,
                                    27,
                                    28,
                                    29,
                                    30,
                                    31,
                                    32,
                                    33,
                                    34,
                                    35,
                                    36,
                                    37,
                                    38,
                                    39
                                ]
                            ],
                            [
                                [
                                    40,
                                    30,
                                    29,
                                    41
                                ]
                            ],
                            [
                                [
                                    42,
                                    32,
                                    31,
                                    43
                                ]
                            ],
                            [
                                [
                                    41,
                                    29,
                                    28,
                                    44
                                ]
                            ],
                            [
                                [
                                    44,
                                    28,
                                    27,
                                    45
                                ]
                            ],
                            [
                                [
                                    46,
                                    11,
                                    10,
                                    47
                                ]
                            ],
                            [
                                [
                                    48,
                                    39,
                                    38,
                                    49
                                ]
                            ],
                            [
                                [
                                    50,
                                    17,
                                    16,
                                    51
                                ]
                            ],
                            [
                                [
                                    52,
                                    18,
                                    17,
                                    50
                                ]
                            ],
                            [
                                [
                                    53,
                                    34,
                                    33,
                                    54
                                ]
                            ],
                            [
                                [
                                    55,
                                    15,
                                    14,
                                    56
                                ]
                            ],
                            [
                                [
                                    43,
                                    31,
                                    30,
                                    40
                                ]
                            ],
                            [
                                [
                                    56,
                                    14,
                                    13,
                                    57
                                ]
                            ],
                            [
                                [
                                    51,
                                    16,
                                    15,
                                    55
                                ]
                            ],
                            [
                                [
                                    45,
                                    27,
                                    26,
                                    58
                                ]
                            ],
                            [
                                [
                                    58,
                                    26,
                                    25,
                                    59
                                ]
                            ],
                            [
                                [
                                    60,
                                    24,
                                    23,
                                    61
                                ]
                            ],
                            [
                                [
                                    59,
                                    25,
                                    24,
                                    60
                                ]
                            ],
                            [
                                [
                                    62,
                                    21,
                                    20,
                                    63
                                ]
                            ],
                            [
                                [
                                    64,
                                    22,
                                    21,
                                    62
                                ]
                            ],
                            [
                                [
                                    65,
                                    35,
                                    34,
                                    53
                                ]
                            ],
                            [
                                [
                                    66,
                                    36,
                                    35,
                                    65
                                ]
                            ],
                            [
                                [
                                    67,
                                    37,
                                    36,
                                    66
                                ]
                            ],
                            [
                                [
                                    54,
                                    33,
                                    32,
                                    42
                                ]
                            ],
                            [
                                [
                                    61,
                                    23,
                                    22,
                                    64
                                ]
                            ],
                            [
                                [
                                    57,
                                    13,
                                    12,
                                    68
                                ]
                            ],
                            [
                                [
                                    49,
                                    38,
                                    37,
                                    67
                                ]
                            ],
                            [
                                [
                                    68,
                                    12,
                                    11,
                                    46
                                ]
                            ],
                            [
                                [
                                    69,
                                    9,
                                    39,
                                    48
                                ]
                            ],
                            [
                                [
                                    47,
                                    10,
                                    9,
                                    69
                                ]
                            ],
                            [
                                [
                                    63,
                                    20,
                                    19,
                                    70
                                ]
                            ],
                            [
                                [
                                    70,
                                    19,
                                    18,
                                    52
                                ]
                            ],
                            [
                                [
                                    57,
                                    68,
                                    46,
                                    47,
                                    69,
                                    48,
                                    49,
                                    67,
                                    66,
                                    65,
                                    53,
                                    54,
                                    42,
                                    43,
                                    40,
                                    41,
                                    44,
                                    45,
                                    58,
                                    59,
                                    60,
                                    61,
                                    64,
                                    62,
                                    63,
                                    70,
                                    52,
                                    50,
                                    51,
                                    55,
                                    56
                                ]
                            ]
                        ]
                    ],
                    "lod": "1.3",
                    "semantics": {
                        "surfaces": [
                            {
                                "type": "GroundSurface"
                            },
                            {
                                "type": "RoofSurface"
                            },
                            {
                                "on_footprint_edge": true,
                                "type": "WallSurface"
                            },
                            {
                                "on_footprint_edge": false,
                                "type": "WallSurface"
                            }
                        ],
                        "values": [
                            [
                                0,
                                2,
                                2,
                                2,
                                2,
                                2,
                                2,
                                2,
                                2,
                                2,
                                2,
                                2,
                                2,
                                2,
                                2,
                                2,
                                2,
                                2,
                                2,
                                2,
                                2,
                                2,
                                2,
                                2,
                                2,
                                2,
                                2,
                                2,
                                2,
                                2,
                                2,
                                2,
                                1
                            ]
                        ]
                    },
                    "type": "Solid"
                },
                {
                    "boundaries": [
                        [
                            [
                                [
                                    9,
                                    10,
                                    11,
                                    12,
                                    13,
                                    14,
                                    15,
                                    16,
                                    17,
                                    18,
                                    19,
                                    20,
                                    21,
                                    22,
                                    23,
                                    24,
                                    25,
                                    26,
                                    27,
                                    28,
                                    29,
                                    30,
                                    31,
                                    32,
                                    33,
                                    34,
                                    35,
                                    36,
                                    37,
                                    38,
                                    39
                                ]
                            ],
                            [
                                [
                                    71,
                                    30,
                                    29,
                                    72
                                ]
                            ],
                            [
                                [
                                    73,
                                    32,
                                    31,
                                    74
                                ]
                            ],
                            [
                                [
                                    72,
                                    29,
                                    28,
                                    75
                                ]
                            ],
                            [
                                [
                                    75,
                                    28,
                                    27,
                                    76
                                ]
                            ],
                            [
                                [
                                    77,
                                    11,
                                    10,
                                    78
                                ]
                            ],
                            [
                                [
                                    79,
                                    39,
                                    38,
                                    80
                                ]
                            ],
                            [
                                [
                                    81,
                                    17,
                                    16,
                                    82
                                ]
                            ],
                            [
                                [
                                    83,
                                    18,
                                    17,
                                    81
                                ]
                            ],
                            [
                                [
                                    84,
                                    34,
                                    33,
                                    85
                                ]
                            ],
                            [
                                [
                                    86,
                                    15,
                                    14,
                                    87
                                ]
                            ],
                            [
                                [
                                    74,
                                    31,
                                    30,
                                    71
                                ]
                            ],
                            [
                                [
                                    87,
                                    14,
                                    13,
                                    88
                                ]
                            ],
                            [
                                [
                                    82,
                                    16,
                                    15,
                                    86
                                ]
                            ],
                            [
                                [
                                    76,
                                    27,
                                    26,
                                    89
                                ]
                            ],
                            [
                                [
                                    89,
                                    26,
                                    25,
                                    90
                                ]
                            ],
                            [
                                [
                                    91,
                                    24,
                                    23,
                                    92
                                ]
                            ],
                            [
                                [
                                    90,
                                    25,
                                    24,
                                    91
                                ]
                            ],
                            [
                                [
                                    93,
                                    21,
                                    20,
                                    94
                                ]
                            ],
                            [
                                [
                                    95,
                                    22,
                                    21,
                                    93
                                ]
                            ],
                            [
                                [
                                    96,
                                    35,
                                    34,
                                    84
                                ]
                            ],
                            [
                                [
                                    97,
                                    36,
                                    35,
                                    96
                                ]
                            ],
                            [
                                [
                                    98,
                                    37,
                                    36,
                                    97
                                ]
                            ],
                            [
                                [
                                    85,
                                    33,
                                    32,
                                    73
                                ]
                            ],
                            [
                                [
                                    99,
                                    100,
                                    101,
                                    102
                                ]
                            ],
                            [
                                [
                                    92,
                                    23,
                                    22,
                                    95
                                ]
                            ],
                            [
                                [
                                    88,
                                    13,
                                    12,
                                    103,
                                    104
                                ]
                            ],
                            [
                                [
                                    104,
                                    103,
                                    100,
                                    99
                                ]
                            ],
                            [
                                [
                                    80,
                                    38,
                                    37,
                                    98
                                ]
                            ],
                            [
                                [
                                    103,
                                    12,
                                    11,
                                    77
                                ]
                            ],
                            [
                                [
                                    105,
                                    9,
                                    39,
                                    79
                                ]
                            ],
                            [
                                [
                                    78,
                                    10,
                                    9,
                                    105
                                ]
                            ],
                            [
                                [
                                    94,
                                    20,
                                    19,
                                    106
                                ]
                            ],
                            [
                                [
                                    106,
                                    19,
                                    18,
                                    83
                                ]
                            ],
                            [
                                [
                                    102,
                                    101,
                                    107,
                                    108
                                ]
                            ],
                            [
                                [
                                    108,
                                    107,
                                    109
                                ]
                            ],
                            [
                                [
                                    106,
                                    83,
                                    81,
                                    82,
                                    86,
                                    87,
                                    88,
                                    104,
                                    99,
                                    102,
                                    108,
                                    109,
                                    97,
                                    96,
                                    84,
                                    85,
                                    73,
                                    74,
                                    71,
                                    72,
                                    75,
                                    76,
                                    89,
                                    90,
                                    91,
                                    92,
                                    95,
                                    93,
                                    94
                                ]
                            ],
                            [
                                [
                                    78,
                                    105,
                                    79,
                                    80,
                                    98,
                                    97,
                                    109,
                                    107,
                                    101,
                                    100,
                                    103,
                                    77
                                ]
                            ]
                        ]
                    ],
                    "lod": "2.2",
                    "semantics": {
                        "surfaces": [
                            {
                                "type": "GroundSurface"
                            },
                            {
                                "type": "RoofSurface"
                            },
                            {
                                "on_footprint_edge": true,
                                "type": "WallSurface"
                            },
                            {
                                "on_footprint_edge": false,
                                "type": "WallSurface"
                            }
                        ],
                        "values": [
                            [
                                0,
                                2,
                                2,
                                2,
                                2,
                                2,
                                2,
                                2,
                                2,
                                2,
                                2,
                                2,
                                2,
                                2,
                                2,
                                2,
                                2,
                                2,
                                2,
                                2,
                                2,
                                2,
                                2,
                                2,
                                3,
                                2,
                                2,
                                3,
                                2,
                                2,
                                2,
                                2,
                                2,
                                2,
                                3,
                                3,
                                1,
                                1
                            ]
                        ]
                    },
                    "type": "Solid"
                }
            ],
            "parents": [
                "1"
            ],
            "type": "BuildingPart"
        }
    },
    "metadata": {
        "geographicalExtent": [
            923754.7699996567,
            6307613.00000021,
            0.0,
            923766.91,
            6307627.5200001905,
            395.02227783203125
        ],
        "identifier": "",
        "referenceDate": "",
        "referenceSystem": "EPSG::2154",
        "title": "3D model generated by Geoflow"
    },
    "transform": {
        "scale": [
            0.001,
            0.001,
            0.001
        ],
        "translate": [
            923766.91,
            6307620.47,
            0.0
        ]
    },
    "type": "CityJSON",
    "version": "1.1",
    "vertices": [
        [
            0,
            0,
            0
        ],
        [
            -3650,
            850,
            0
        ],
        [
            -1580,
            7050,
            0
        ],
        [
            -3990,
            6450,
            0
        ],
        [
            -12140,
            4340,
            0
        ],
        [
            -9140,
            -1050,
            0
        ],
        [
            -7670,
            -2650,
            0
        ],
        [
            -2960,
            -7470,
            0
        ],
        [
            -1880,
            -5080,
            0
        ],
        [
            -1878,
            6975,
            0
        ],
        [
            -1580,
            7050,
            0
        ],
        [
            -1614,
            6947,
            0
        ],
        [
            -3129,
            2408,
            0
        ],
        [
            -3210,
            2165,
            0
        ],
        [
            -3493,
            1318,
            0
        ],
        [
            -3603,
            989,
            0
        ],
        [
            -3636,
            889,
            0
        ],
        [
            -3650,
            850,
            0
        ],
        [
            -3209,
            747,
            0
        ],
        [
            -3142,
            731,
            0
        ],
        [
            0,
            0,
            0
        ],
        [
            -62,
            -168,
            0
        ],
        [
            -180,
            -486,
            0
        ],
        [
            -302,
            -816,
            0
        ],
        [
            -322,
            -819,
            0
        ],
        [
            -368,
            -995,
            0
        ],
        [
            -699,
            -1890,
            0
        ],
        [
            -1880,
            -5080,
            0
        ],
        [
            -2960,
            -7470,
            0
        ],
        [
            -3106,
            -7320,
            0
        ],
        [
            -4830,
            -5555,
            0
        ],
        [
            -7670,
            -2650,
            0
        ],
        [
            -9140,
            -1050,
            0
        ],
        [
            -10072,
            624,
            0
        ],
        [
            -11178,
            2611,
            0
        ],
        [
            -12043,
            4167,
            0
        ],
        [
            -11637,
            4075,
            0
        ],
        [
            -11709,
            4307,
            0
        ],
        [
            -11751,
            4440,
            0
        ],
        [
            -3990,
            6450,
            0
        ],
        [
            -4830,
            -5555,
            8955
        ],
        [
            -3106,
            -7320,
            8955
        ],
        [
            -9140,
            -1050,
            8955
        ],
        [
            -7670,
            -2650,
            8955
        ],
        [
            -2960,
            -7470,
            8955
        ],
        [
            -1880,
            -5080,
            8955
        ],
        [
            -1614,
            6947,
            8955
        ],
        [
            -1580,
            7050,
            8955
        ],
        [
            -3990,
            6450,
            8955
        ],
        [
            -11751,
            4440,
            8955
        ],
        [
            -3650,
            850,
            8955
        ],
        [
            -3636,
            889,
            8955
        ],
        [
            -3209,
            747,
            8955
        ],
        [
            -11178,
            2611,
            8955
        ],
        [
            -10072,
            624,
            8955
        ],
        [
            -3603,
            989,
            8955
        ],
        [
            -3493,
            1318,
            8955
        ],
        [
            -3210,
            2165,
            8955
        ],
        [
            -699,
            -1890,
            8955
        ],
        [
            -368,
            -995,
            8955
        ],
        [
            -322,
            -819,
            8955
        ],
        [
            -302,
            -816,
            8955
        ],
        [
            -62,
            -168,
            8955
        ],
        [
            0,
            0,
            8955
        ],
        [
            -180,
            -486,
            8955
        ],
        [
            -12043,
            4167,
            8955
        ],
        [
            -11637,
            4075,
            8955
        ],
        [
            -11709,
            4307,
            8955
        ],
        [
            -3129,
            2408,
            8955
        ],
        [
            -1878,
            6975,
            8955
        ],
        [
            -3142,
            731,
            8955
        ],
        [
            -4830,
            -5555,
            7986
        ],
        [
            -3106,
            -7320,
            8039
        ],
        [
            -9140,
            -1050,
            7872
        ],
        [
            -7670,
            -2650,
            7899
        ],
        [
            -2960,
            -7470,
            8044
        ],
        [
            -1880,
            -5080,
            8722
        ],
        [
            -1614,
            6947,
            8291
        ],
        [
            -1580,
            7050,
            8259
        ],
        [
            -3990,
            6450,
            8223
        ],
        [
            -11751,
            4440,
            8133
        ],
        [
            -3650,
            850,
            9427
        ],
        [
            -3636,
            889,
            9438
        ],
        [
            -3209,
            747,
            9505
        ],
        [
            -11178,
            2611,
            8100
        ],
        [
            -10072,
            624,
            7976
        ],
        [
            -3603,
            989,
            9463
        ],
        [
            -3493,
            1318,
            9548
        ],
        [
            -3210,
            2165,
            9766
        ],
        [
            -699,
            -1890,
            9569
        ],
        [
            -368,
            -995,
            9807
        ],
        [
            -322,
            -819,
            9850
        ],
        [
            -302,
            -816,
            9855
        ],
        [
            -62,
            -168,
            10027
        ],
        [
            0,
            0,
            10072
        ],
        [
            -180,
            -486,
            9942
        ],
        [
            -12043,
            4167,
            8197
        ],
        [
            -11637,
            4075,
            8269
        ],
        [
            -11709,
            4307,
            8182
        ],
        [
            -3248,
            2452,
            9811
        ],
        [
            -3248,
            2452,
            9665
        ],
        [
            -3573,
            2572,
            9591
        ],
        [
            -3573,
            2572,
            9762
        ],
        [
            -3129,
            2408,
            9691
        ],
        [
            -3129,
            2408,
            9829
        ],
        [
            -1878,
            6975,
            8255
        ],
        [
            -3142,
            731,
            9517
        ],
        [
            -6218,
            3548,
            8992
        ],
        [
            -6218,
            3548,
            9361
        ],
        [
            -7979,
            3246,
            8919
        ]
    ]
}